[
  {
    "id": 1,
    "name": "Jana Kalniņa",
    "phone": "83612481"
  },
  {
    "id": 2,
    "name": "Jānis Bērziņš",
    "phone": "48534280"
  },
  {
    "id": 3,
    "name": "Evita Vīgrieze",
    "phone": "89871234"
  },
  {
    "id": 4,
    "name": "Aivars Krūmiņš",
    "phone": "87264354"
  },
  {
    "id": 5,
    "name": "Zīle Viesture",
    "phone": "89273456"
  },
  {
    "id": 6,
    "name": "Anna Lapiņa",
    "phone": "82973458"
  },
  {
    "id": 7,
    "name": "Edgars Kravels",
    "phone": "51325426"
  },
  {
    "id": 8,
    "name": "Vija Ozola",
    "phone": "45986495"
  },
  {
    "id": 9,
    "name": "Māra Zalbe",
    "phone": "01382972"
  }
]